top_test_dump.vcd
$date
	Fri Jan 21 23:33:32 2022
$end

$version
	Synopsys VCS version Q-2020.03-SP2-6_Full64
$end

$timescale
	1ps
$end

$comment Csum: 1 33ddf28515d57411 $end


$scope module MIPS_TEST $end
$var reg 1 ! clk $end
$var reg 1 " rst $end
$var integer 32 # duration $end
$var wire 32 $ writedata [31:0] $end
$var wire 32 % dataadr [31:0] $end
$var wire 32 & readdata [31:0] $end
$var wire 32 ' instr [31:0] $end
$var wire 1 ( memwrite $end

$scope module DUT $end
$var wire 1 ! clk $end
$var wire 1 " rst $end
$var wire 32 $ writedata [31:0] $end
$var wire 32 & readdata [31:0] $end
$var wire 32 % dataadr [31:0] $end
$var wire 1 ( memwrite $end
$var wire 32 ' instr [31:0] $end
$var wire 32 ) pc [31:0] $end

$scope module mips $end
$var wire 1 ! clk $end
$var wire 1 " rst $end
$var wire 32 ' instrF [31:0] $end
$var wire 32 & readdataM [31:0] $end
$var wire 32 ) pcF [31:0] $end
$var wire 1 ( memwriteM $end
$var wire 32 % alumultoutM [31:0] $end
$var wire 32 $ writedataM [31:0] $end
$var wire 6 * opD [5:0] $end
$var wire 6 + fnD [5:0] $end
$var wire 1 , equalD $end
$var wire 1 - flushE $end
$var wire 1 . regwriteW $end
$var wire 1 / memtoregW $end
$var wire 1 0 jalW $end
$var wire 1 1 regwriteM $end
$var wire 1 2 memtoregM $end
$var wire 1 3 jalM $end
$var wire 1 4 lohiM $end
$var wire 1 5 regwriteE $end
$var wire 1 6 memtoregE $end
$var wire 1 7 jalE $end
$var wire 1 8 multstartE $end
$var wire 1 9 multsignE $end
$var wire 1 : branchD $end
$var wire 1 ; jumpD $end
$var wire 1 < pcsrcD $end
$var wire 2 = alusrcE [1:0] $end
$var wire 2 > regdstE [1:0] $end
$var wire 4 ? alucontrolE [3:0] $end
$var wire 1 @ aluormultM $end
$var wire 1 A aluormultE $end
$var wire 1 B jalD $end

$scope module c $end
$var wire 1 ! clk $end
$var wire 1 " rst $end
$var wire 6 * opD [5:0] $end
$var wire 6 + fnD [5:0] $end
$var wire 1 , equalD $end
$var wire 1 - flushE $end
$var wire 1 . regwriteW $end
$var wire 1 / memtoregW $end
$var wire 1 0 jalW $end
$var wire 1 1 regwriteM $end
$var wire 1 2 memtoregM $end
$var wire 1 3 jalM $end
$var wire 1 ( memwriteM $end
$var wire 1 @ aluormultM $end
$var wire 1 4 lohiM $end
$var wire 1 5 regwriteE $end
$var wire 1 6 memtoregE $end
$var wire 1 7 jalE $end
$var wire 1 A aluormultE $end
$var wire 1 B jalD $end
$var wire 1 8 multstartE $end
$var wire 1 9 multsignE $end
$var wire 4 ? alucontrolE [3:0] $end
$var wire 2 = alusrcE [1:0] $end
$var wire 2 > regdstE [1:0] $end
$var wire 1 : branchD $end
$var wire 1 ; jumpD $end
$var wire 1 < pcsrcD $end
$var wire 1 C regwriteD $end
$var wire 1 D memwriteD $end
$var wire 1 E memtoregD $end
$var wire 1 F multstartD $end
$var wire 1 G multsignD $end
$var wire 1 H aluormultD $end
$var wire 1 I lohiD $end
$var wire 2 J alusrcD [1:0] $end
$var wire 2 K regdstD [1:0] $end
$var wire 1 L bneD $end
$var wire 3 M aluopD [2:0] $end
$var wire 4 N alucontrolD [3:0] $end
$var wire 1 O lohiE $end
$var wire 1 P memwriteE $end

$scope module md $end
$var wire 6 * op [5:0] $end
$var wire 1 C regwrite $end
$var wire 1 D memwrite $end
$var wire 1 : branch $end
$var wire 1 E memtoreg $end
$var wire 2 J alusrc [1:0] $end
$var wire 2 K regdst [1:0] $end
$var wire 1 ; jump $end
$var wire 1 B jal $end
$var wire 1 L bne $end
$var wire 3 M aluop [2:0] $end
$var reg 14 Q controls [13:0] $end
$upscope $end


$scope module ad $end
$var wire 6 + funct [5:0] $end
$var wire 3 M aluop [2:0] $end
$var wire 4 N alucontrol [3:0] $end
$var wire 1 F multstart $end
$var wire 1 G multsign $end
$var wire 1 H aluormult $end
$var wire 1 I lohi $end
$var reg 4 N internal_ctrl [3:0] $end
$var reg 1 F int_multstart $end
$var reg 1 G int_multsign $end
$var reg 1 H int_aluormult $end
$var reg 1 I int_lohi $end
$upscope $end


$scope module regE $end
$var wire 1 ! clk $end
$var wire 1 " reset $end
$var wire 1 - clr $end
$var wire 16 R d [15:0] $end
$var reg 16 S q [15:0] $end
$upscope $end


$scope module regM $end
$var wire 1 ! clk $end
$var wire 1 " reset $end
$var wire 1 5 d [5] $end
$var wire 1 6 d [4] $end
$var wire 1 P d [3] $end
$var wire 1 7 d [2] $end
$var wire 1 A d [1] $end
$var wire 1 O d [0] $end
$var reg 6 T q [5:0] $end
$upscope $end


$scope module regW $end
$var wire 1 ! clk $end
$var wire 1 " reset $end
$var wire 1 1 d [2] $end
$var wire 1 2 d [1] $end
$var wire 1 3 d [0] $end
$var reg 3 U q [2:0] $end
$upscope $end

$upscope $end


$scope module dp $end
$var wire 1 ! clk $end
$var wire 1 " rst $end
$var wire 32 ' instrF [31:0] $end
$var wire 1 . regwriteW $end
$var wire 1 / memtoregW $end
$var wire 1 0 jalW $end
$var wire 1 1 regwriteM $end
$var wire 1 2 memtoregM $end
$var wire 1 3 jalM $end
$var wire 1 ( memwriteM $end
$var wire 1 @ aluormultM $end
$var wire 1 4 lohiM $end
$var wire 1 5 regwriteE $end
$var wire 1 6 memtoregE $end
$var wire 1 7 jalE $end
$var wire 1 8 multstartE $end
$var wire 1 9 multsignE $end
$var wire 1 A aluormultE $end
$var wire 4 ? alucontrolE [3:0] $end
$var wire 2 = alusrcE [1:0] $end
$var wire 2 > regdstE [1:0] $end
$var wire 1 : branchD $end
$var wire 1 ; jumpD $end
$var wire 1 < pcsrcD $end
$var wire 1 B jalD $end
$var wire 32 & readdataM [31:0] $end
$var wire 32 % alumultoutM [31:0] $end
$var wire 32 $ writedataM [31:0] $end
$var wire 32 ) pcF [31:0] $end
$var wire 1 - flushE $end
$var wire 1 , equalD $end
$var wire 6 * opD [5:0] $end
$var wire 6 + fnD [5:0] $end
$var wire 1 V forwardAD $end
$var wire 1 W forwardBD $end
$var wire 1 X stallF $end
$var wire 1 X stallD $end
$var wire 1 Y flushD $end
$var wire 1 Z prodVE $end
$var wire 2 [ forwardAE [1:0] $end
$var wire 2 \ forwardBE [1:0] $end
$var wire 5 ] rsD [4:0] $end
$var wire 5 ^ rtD [4:0] $end
$var wire 5 _ rdD [4:0] $end
$var wire 5 ` rsE [4:0] $end
$var wire 5 a rtE [4:0] $end
$var wire 5 b rdE [4:0] $end
$var wire 5 c writeregE [4:0] $end
$var wire 5 d writeregM [4:0] $end
$var wire 5 e writeregW [4:0] $end
$var wire 32 f wd3 [31:0] $end
$var wire 32 g pcnextF [31:0] $end
$var wire 32 h pcplus4F [31:0] $end
$var wire 32 i pcplus4D [31:0] $end
$var wire 32 j pcplus4E [31:0] $end
$var wire 32 k pcplus4M [31:0] $end
$var wire 32 l pcplus4W [31:0] $end
$var wire 32 m pctempD [31:0] $end
$var wire 32 n pcbranchD [31:0] $end
$var wire 32 o instrD [31:0] $end
$var wire 32 p signimmD [31:0] $end
$var wire 32 q signimmE [31:0] $end
$var wire 32 r signimmshD [31:0] $end
$var wire 32 s luiD [31:0] $end
$var wire 32 t luiE [31:0] $end
$var wire 32 u srcAD [31:0] $end
$var wire 32 v srcAE [31:0] $end
$var wire 32 w srcBD [31:0] $end
$var wire 32 x srcBE [31:0] $end
$var wire 32 y writedataE [31:0] $end
$var wire 32 z rfread1E [31:0] $end
$var wire 32 { rfread2E [31:0] $end
$var wire 32 | eq1 [31:0] $end
$var wire 32 } eq2 [31:0] $end
$var wire 32 ~ aluoutE [31:0] $end
$var wire 32 "! aluoutM [31:0] $end
$var wire 32 "" alumultoutW [31:0] $end
$var wire 32 "# readdataW [31:0] $end
$var wire 32 "$ resultW [31:0] $end
$var wire 32 "% prodM1 [31:0] $end
$var wire 64 "& prodE [63:0] $end
$var wire 64 "' prodM [63:0] $end
$var wire 1 "( zeroE $end

$scope module pcbrmux $end
$var wire 32 h d0 [31:0] $end
$var wire 32 n d1 [31:0] $end
$var wire 1 < s $end
$var wire 32 m y [31:0] $end
$upscope $end


$scope module pcjmux $end
$var wire 32 m d0 [31:0] $end
$var wire 32 ") d1 [31:0] $end
$var wire 1 ; s $end
$var wire 32 g y [31:0] $end
$upscope $end


$scope module pcreg $end
$var wire 1 ! clk $end
$var wire 1 " reset $end
$var wire 1 "* en $end
$var wire 32 g d [31:0] $end
$var reg 32 ) q [31:0] $end
$upscope $end


$scope module pcplus4_1 $end
$var wire 32 ) a [31:0] $end
$var wire 32 "+ b [31:0] $end
$var wire 32 h y [31:0] $end
$upscope $end


$scope module RD1 $end
$var wire 1 ! clk $end
$var wire 1 " reset $end
$var wire 1 "* en $end
$var wire 32 ' d [31:0] $end
$var reg 32 o q [31:0] $end
$upscope $end


$scope module RD2 $end
$var wire 1 ! clk $end
$var wire 1 " reset $end
$var wire 1 "* en $end
$var wire 1 Y clr $end
$var wire 32 h d [31:0] $end
$var reg 32 i q [31:0] $end
$upscope $end


$scope module jalmux $end
$var wire 32 "$ d0 [31:0] $end
$var wire 32 l d1 [31:0] $end
$var wire 1 0 s $end
$var wire 32 f y [31:0] $end
$upscope $end


$scope module se $end
$var wire 16 ", inst [15:0] $end
$var wire 32 p imm [31:0] $end
$upscope $end


$scope module signimmsh $end
$var wire 32 p a [31:0] $end
$var wire 32 r y [31:0] $end
$upscope $end


$scope module lui $end
$var wire 16 ", a [15:0] $end
$var wire 32 s y [31:0] $end
$upscope $end


$scope module pcplus4_2 $end
$var wire 32 r a [31:0] $end
$var wire 32 i b [31:0] $end
$var wire 32 n y [31:0] $end
$upscope $end


$scope module FADmux $end
$var wire 32 u d0 [31:0] $end
$var wire 32 % d1 [31:0] $end
$var wire 1 V s $end
$var wire 32 | y [31:0] $end
$upscope $end


$scope module FBDmux $end
$var wire 32 w d0 [31:0] $end
$var wire 32 % d1 [31:0] $end
$var wire 1 W s $end
$var wire 32 } y [31:0] $end
$upscope $end


$scope module eq $end
$var wire 32 | a [31:0] $end
$var wire 32 } b [31:0] $end
$var wire 1 , equal $end
$upscope $end


$scope module rf $end
$var wire 1 ! CLK $end
$var wire 1 " RST $end
$var wire 1 . WE3 $end
$var wire 5 ] A1 [4:0] $end
$var wire 5 ^ A2 [4:0] $end
$var wire 5 e A3 [4:0] $end
$var wire 32 f WD3 [31:0] $end
$var wire 32 u RD1 [31:0] $end
$var wire 32 w RD2 [31:0] $end
$var integer 32 "- i $end
$upscope $end


$scope module RE1 $end
$var wire 1 ". clk $end
$var wire 1 "/ reset $end
$var wire 1 - clr $end
$var wire 32 u d [31:0] $end
$var reg 32 "0 q [31:0] $end
$upscope $end


$scope module RE2 $end
$var wire 1 ". clk $end
$var wire 1 "/ reset $end
$var wire 1 - clr $end
$var wire 32 w d [31:0] $end
$var reg 32 "1 q [31:0] $end
$upscope $end


$scope module RE3 $end
$var wire 1 ! clk $end
$var wire 1 " reset $end
$var wire 1 - clr $end
$var wire 5 ] d [4:0] $end
$var reg 5 ` q [4:0] $end
$upscope $end


$scope module RE4 $end
$var wire 1 ! clk $end
$var wire 1 " reset $end
$var wire 1 - clr $end
$var wire 5 ^ d [4:0] $end
$var reg 5 a q [4:0] $end
$upscope $end


$scope module RE5 $end
$var wire 1 ! clk $end
$var wire 1 " reset $end
$var wire 1 - clr $end
$var wire 5 _ d [4:0] $end
$var reg 5 b q [4:0] $end
$upscope $end


$scope module RE6 $end
$var wire 1 ". clk $end
$var wire 1 "/ reset $end
$var wire 1 - clr $end
$var wire 32 "2 d [31:0] $end
$var reg 32 "3 q [31:0] $end
$upscope $end


$scope module RE7 $end
$var wire 1 ". clk $end
$var wire 1 "/ reset $end
$var wire 1 - clr $end
$var wire 32 "4 d [31:0] $end
$var reg 32 "5 q [31:0] $end
$upscope $end


$scope module RE8 $end
$var wire 1 ". clk $end
$var wire 1 "/ reset $end
$var wire 1 - clr $end
$var wire 32 "6 d [31:0] $end
$var reg 32 "7 q [31:0] $end
$upscope $end


$scope module regdstmux $end
$var wire 5 a d0 [4:0] $end
$var wire 5 b d1 [4:0] $end
$var wire 5 "8 d2 [4:0] $end
$var wire 2 > s [1:0] $end
$var wire 5 c y [4:0] $end
$upscope $end


$scope module forwardAEmux $end
$var wire 32 z d0 [31:0] $end
$var wire 32 "$ d1 [31:0] $end
$var wire 32 % d2 [31:0] $end
$var wire 2 [ s [1:0] $end
$var wire 32 v y [31:0] $end
$upscope $end


$scope module forwardBEmux $end
$var wire 32 { d0 [31:0] $end
$var wire 32 "$ d1 [31:0] $end
$var wire 32 % d2 [31:0] $end
$var wire 2 \ s [1:0] $end
$var wire 32 y y [31:0] $end
$upscope $end


$scope module alusrcmux $end
$var wire 32 y d0 [31:0] $end
$var wire 32 q d1 [31:0] $end
$var wire 32 t d2 [31:0] $end
$var wire 2 = s [1:0] $end
$var wire 32 x y [31:0] $end
$upscope $end


$scope module alu $end
$var wire 32 v InA [31:0] $end
$var wire 32 x InB [31:0] $end
$var wire 4 ? ALUControl [3:0] $end
$var reg 32 ~ out [31:0] $end
$var wire 1 "( zero $end
$var wire 1 "9 less $end
$var wire 1 ": greater $end
$var wire 1 "; equal $end
$var wire 32 "< BB [31:0] $end
$var wire 32 "= S [31:0] $end
$var wire 1 "> cout $end
$upscope $end


$scope module mult $end
$var wire 1 ! CLK $end
$var wire 1 " RST $end
$var wire 1 8 MST $end
$var wire 1 9 MSGN $end
$var wire 32 v SRCA [31:0] $end
$var wire 32 x SRCB [31:0] $end
$var wire 64 "& PROD [63:0] $end
$var wire 1 Z PRODV $end
$var reg 3 "? state [2:0] $end
$var reg 1 "@ msgn $end
$var reg 32 "A A [31:0] $end
$var reg 32 "B B [31:0] $end
$var reg 8 "C count [7:0] $end
$var reg 64 "& P [63:0] $end
$var reg 64 "D T [63:0] $end
$var reg 32 "E temp_b [31:0] $end
$var reg 1 Z prodv $end
$upscope $end


$scope module RM1 $end
$var wire 1 ! clk $end
$var wire 1 " reset $end
$var wire 64 "& d [63:0] $end
$var reg 64 "' q [63:0] $end
$upscope $end


$scope module RM2 $end
$var wire 1 ". clk $end
$var wire 1 "/ reset $end
$var wire 32 "F d [31:0] $end
$var reg 32 "G q [31:0] $end
$upscope $end


$scope module RM3 $end
$var wire 1 ". clk $end
$var wire 1 "/ reset $end
$var wire 32 y d [31:0] $end
$var reg 32 "H q [31:0] $end
$upscope $end


$scope module RM4 $end
$var wire 1 ! clk $end
$var wire 1 " reset $end
$var wire 5 c d [4:0] $end
$var reg 5 d q [4:0] $end
$upscope $end


$scope module RM5 $end
$var wire 1 ". clk $end
$var wire 1 "/ reset $end
$var wire 32 j d [31:0] $end
$var reg 32 "I q [31:0] $end
$upscope $end


$scope module multmux $end
$var wire 32 "J d0 [31:0] $end
$var wire 32 "K d1 [31:0] $end
$var wire 1 4 s $end
$var wire 32 "% y [31:0] $end
$upscope $end


$scope module alumultmux $end
$var wire 32 "! d0 [31:0] $end
$var wire 32 "% d1 [31:0] $end
$var wire 1 @ s $end
$var wire 32 % y [31:0] $end
$upscope $end


$scope module RW1 $end
$var wire 1 ". clk $end
$var wire 1 "/ reset $end
$var wire 32 & d [31:0] $end
$var reg 32 "L q [31:0] $end
$upscope $end


$scope module RW2 $end
$var wire 1 ". clk $end
$var wire 1 "/ reset $end
$var wire 32 % d [31:0] $end
$var reg 32 "M q [31:0] $end
$upscope $end


$scope module RW3 $end
$var wire 1 ! clk $end
$var wire 1 " reset $end
$var wire 5 d d [4:0] $end
$var reg 5 e q [4:0] $end
$upscope $end


$scope module RW4 $end
$var wire 1 ". clk $end
$var wire 1 "/ reset $end
$var wire 32 k d [31:0] $end
$var reg 32 "N q [31:0] $end
$upscope $end


$scope module memtoregmux $end
$var wire 32 "" d0 [31:0] $end
$var wire 32 "# d1 [31:0] $end
$var wire 1 / s $end
$var wire 32 "$ y [31:0] $end
$upscope $end


$scope module h $end
$var wire 1 . regwriteW $end
$var wire 1 1 regwriteM $end
$var wire 1 2 memtoregM $end
$var wire 5 e writeregW [4:0] $end
$var wire 5 d writeregM [4:0] $end
$var wire 5 c writeregE [4:0] $end
$var wire 1 5 regwriteE $end
$var wire 1 6 memtoregE $end
$var wire 1 : branchD $end
$var wire 5 ` rsE [4:0] $end
$var wire 5 a rtE [4:0] $end
$var wire 5 ] rsD [4:0] $end
$var wire 5 ^ rtD [4:0] $end
$var wire 1 B jalD $end
$var wire 1 7 jalE $end
$var wire 1 3 jalM $end
$var wire 1 A aluormultE $end
$var wire 1 Z prodv $end
$var wire 1 ; jumpD $end
$var wire 2 [ forwardAE [1:0] $end
$var wire 2 \ forwardBE [1:0] $end
$var wire 1 V forwardAD $end
$var wire 1 W forwardBD $end
$var wire 1 X stallD $end
$var wire 1 X stallF $end
$var wire 1 - flushE $end
$var wire 1 "O lwstall $end
$var wire 1 "P branchstall $end
$var wire 1 "Q jalstall $end
$var wire 1 "R multstall $end
$var reg 2 [ forwardAE_temp [1:0] $end
$var reg 2 \ forwardBE_temp [1:0] $end
$upscope $end

$upscope $end

$upscope $end


$scope module imem $end
$var wire 6 "S Address [5:0] $end
$var wire 32 ' ReadData [31:0] $end
$upscope $end


$scope module dmem $end
$var wire 1 ! CLK $end
$var wire 1 " RST $end
$var wire 1 ( WriteEnable $end
$var wire 32 % Address [31:0] $end
$var wire 32 $ WriteData [31:0] $end
$var wire 32 & ReadData [31:0] $end
$upscope $end

$upscope $end

$upscope $end

$enddefinitions $end

#0
$dumpvars
0A
0@
0"P
1!
0Y
xH
xI
xG
xF
07
03
00
0"Q
0O
04
06
02
0/
0(
0P
0"@
09
08
0<
0Z
05
01
0.
1"
0X
x"O
x,
x">
xB
x"R
x:
x;
x"*
x"9
xC
x":
xD
x";
xE
xL
xV
x"(
xW
b00000000000000000000000000000000 "A
b00000000000000000000000000000000 "B
b00000000000000000000000000000000 "<
b0000000000000000000000000000000000000000000000000000000000000000 "&
b00000000000000000000000000000000 o
b00000000000000000000000000000000 i
b0000000000000000000000000000000000000000000000000000000000000000 "'
b00000 d
b00000 e
b00000000000000000000000000000000 "=
b0000000000000000000000000000000000000000000000000000000000000000 "D
b0000 ?
b00000000000000000000000000000000 ""
b010 M
b00000000000000000000000000000000 "!
b00 =
b10100000000010 Q
bxxxxxxxx "C
b00000000000000000000000000000000 )
b00000000000000000000000000000000 #
b000000 +
b00 [
b00 \
b00000000000000000000000000100000 "-
b00111100000100000000000000000000 '
bxxxx N
b00000000000000000000000000000000 t
b000000 *
b00000000000000000000000000000000 ~
b00000000000000000000000000000100 g
b00000000000000000000000000000100 h
b00000000000000000000000000000000 l
b0000000000000000 S
b00000000000000000000000000000000 "#
b000000 T
b000 U
b00 >
b00000000000000000000000000000000 "$
b00000000000000000000000000000000 z
b00000000000000000000000000000000 {
b00000000000000000000000000000000 q
b00000000000000000000000000000000 v
b00000000000000000000000000000000 x
b011 "?
bxxxxx ]
bxxxxxxxxxxxxxxxx ",
bxxxxxxxxxxxxxxxxxxxxxxxxxxxxxxxx "%
bxxxxx ^
bxxxxxxxxxxxxxxxxxxxxxxxxxxxxxxxx r
bxxxxxxxxxxxxxxxxxxxxxxxxxxxxxxxx |
bxxxxxxxxxxxxxxxxxxxxxxxxxxxxxxxx }
bxxxxxxxxxxxxxxxxxxxxxxxxxxxxxxxx m
bxxxxxxxxxxxxxxxx R
bxxxxxxxxxxxxxxxxxxxxxxxxxxxxxxxx p
bxxxxxxxxxxxxxxxxxxxxxxxxxxxxxxxx s
bxxxxx `
bxxxxxx "S
bxx J
bxxxxx a
bxxxxxxxxxxxxxxxxxxxxxxxxxxxxxxxx ")
bxx K
bxxxxx _
bxxxxx b
bxxxxxxxxxxxxxxxxxxxxxxxxxxxxxxxx n
bxxxxxxxxxxxxxxxxxxxxxxxxxxxxxxxx "J
bxxxxxxxxxxxxxxxxxxxxxxxxxxxxxxxx "K
b00000000000000000000000000000000 "E
b00000000000000000000000000000000 f
b00000000000000000000000000000000 $
b00000 c
b00000000000000000000000000000000 "0
b00000000000000000000000000000000 "1
b00000000000000000000000000000000 "3
b00000000000000000000000000000000 "5
b00000000000000000000000000000000 "7
b00000000000000000000000000000000 "G
b00000000000000000000000000000000 "H
b00000000000000000000000000000000 "I
b00000000000000000000000000000000 "L
b00000000000000000000000000000000 "M
b00000000000000000000000000000000 "N
b11111 "8
b00000000000000000000000000000100 "+
b00000000000000000000000000000000 %
0-
b00000000000000000000000000000000 u
b00000000000000000000000000000000 w
b00000000000000000000000000000000 j
b00000000000000000000000000000000 y
b00000000000000000000000000000000 k
bxxxxxxxxxxxxxxxxxxxxxxxxxxxxxxxx &
b00000000000000000000000000000000 "2
b00000000000000000000000000000000 "4
1".
1"/
b00000000000000000000000000000000 "6
b00000000000000000000000000000000 "F
$end
0V
0W
b00000000000000000000000000000000 |
b00000000000000000000000000000000 }
1,
b00000000000000000000000000000000 "K
b00000000000000000000000000000000 "J
b00000000000000000000000000000000 "%
0"O
b00000000000000000000000000000100 m
b0000000000000000 ",
b00000000000000000000000000000000 r
b00000000000000000000000000000000 n
0">
0"R
bxx100xxxx00010xx R
0:
0;
0B
1C
0E
0D
b00 J
b01 K
0L
1"*
0"9
0":
1";
b000000 "S
b00000000000000000000000000000000 ")
b00000 ]
b00000 ^
b00000 _
b00000000000000000000000000000000 p
b00000000000000000000000000000000 s
1"(
b00000 `
b00000 a
b00000 b
#5
0!
0".
#10
1!
1".
#15
0!
0".
#20
0"
0"/
b00000000000000000000000001100100 #
1!
1".
bxx100xxxx00010xx S
xO
xA
x"R
b01 >
bxxxx ?
x">
15
x9
x8
b00000000000000000000000000000100 i
b00000000000000000000000000000100 n
b00000000000000000000000000000100 "6
b00000000000000000000000000000100 )
b000001 "S
b00110010000100000000000000010000 '
b00000000000000000000000000001000 h
b00000000000000000000000000001000 m
b00111100000100000000000000000000 o
b00000000010000000000000000000000 ")
b10000 ^
b001111 *
bxxxxxxxxxxxxxxxxxxxxxxxxxxxxxxxx "L
bxxxxxxxxxxxxxxxxxxxxxxxxxxxxxxxx "#
xX
x"*
bxxxxxxxxxxxxxxxxxxxxxxxxxxxxxxxx "<
bxxxxxxxxxxxxxxxxxxxxxxxxxxxxxxxx "=
b00000000000000000000000000001000 g
b10010000000000 Q
bxx100xxxx10000xx R
b10 J
b00 K
b000 M
bxxxxxxxxxxxxxxxxxxxxxxxxxxxxxxxx ~
x"(
bxxxxxxxxxxxxxxxxxxxxxxxxxxxxxxxx "F
b0010 N
b0010000101000000 R
0F
0G
0H
0I
#25
0!
0".
#30
1!
1".
b0010000101000000 S
0O
0A
0"R
b00 >
b10 =
b0010 ?
09
08
b10000 a
b1000xx T
x4
x@
11
b00000000000000000000000000000100 "7
b00000000000000000000000000000100 j
bxxxxxxxxxxxxxxxxxxxxxxxxxxxxxxxx "G
bxxxxxxxxxxxxxxxxxxxxxxxxxxxxxxxx "!
0X
1"*
bxxxxxxxxxxxxxxxxxxxxxxxxxxxxxxxx %
b00000000000000000000000000000000 "<
0">
b10000 c
b00000000000000000000000000000000 "=
b00000000000000000000000000000000 ~
1"(
b00000000000000000000000000000000 "F
#35
0!
0".
#40
1!
1".
b00000000000000000000000000001000 i
b00000000000000000000000000001000 n
b00000000000000000000000000001000 "6
b100000 T
04
0@
b100 U
1.
b10000 d
1W
bxxxxxxxxxxxxxxxxxxxxxxxxxxxxxxxx }
x,
b00000000000000000000000000001000 )
b000010 "S
b00111100000100010000000000000000 '
b00000000000000000000000000001100 h
b00000000000000000000000000001100 m
b0000000000010000 ",
b00000000000000000000000001000000 r
b00000000000000000000000001001000 n
b00110010000100000000000000010000 o
b00001000010000000000000001000000 ")
1V
bxxxxxxxxxxxxxxxxxxxxxxxxxxxxxxxx |
b10000 ]
b00000000000000000000000000010000 p
b00000000000100000000000000000000 s
b001100 *
b010000 +
b00000000000000000000000000000000 "G
b00000000000000000000000000000000 "!
b00000000000000000000000000000100 "I
b00000000000000000000000000000100 k
bxxxxxxxxxxxxxxxxxxxxxxxxxxxxxxxx "M
bxxxxxxxxxxxxxxxxxxxxxxxxxxxxxxxx ""
b00000000000000000000000000010000 "2
b00000000000100000000000000000000 "4
b10 \
b00000000000000000000000000001100 g
b00000000000000000000000000000000 %
b00000000000000000000000000000000 |
b00000000000000000000000000000000 }
1,
bxxxxxxxxxxxxxxxxxxxxxxxxxxxxxxxx "$
bxxxxxxxxxxxxxxxxxxxxxxxxxxxxxxxx f
b10001000000100 Q
b0010000100100000 R
b01 J
b100 M
b0000 N
b0010000000100000 R
#45
0!
0".
#50
1!
1".
b0010000000100000 S
b01 =
b0000 ?
b10000 `
b00000000000000000000000000001100 i
b00000000000000000000000001001100 n
b00000000000000000000000000001100 "6
b10000 e
b00000000000000000000000000001100 )
b000011 "S
b00110010000100000000000000100100 '
b00000000000000000000000000010000 h
b00000000000000000000000000010000 m
b0000000000000000 ",
b00000000000000000000000000000000 r
b00000000000000000000000000001100 n
b00111100000100010000000000000000 o
b00000000010001000000000000000000 ")
0V
0W
b00000 ]
b10001 ^
b00000000000000000000000000000000 p
b00000000000000000000000000000000 s
b001111 *
b000000 +
b00000000000000000000000000010000 "3
b00000000000000000000000000010000 q
b00000000000100000000000000000000 "5
b00000000000100000000000000000000 t
b00000000000000000000000000001000 "7
b00000000000000000000000000001000 j
b00000000000000000000000000000000 "M
b00000000000000000000000000000000 ""
b00000000000000000000000000000100 "N
b00000000000000000000000000000100 l
b00000000000000000000000000000000 "2
b00000000000000000000000000000000 "4
b10 [
b00000000000000000000000000010000 g
b00000000000000000000000000000000 "$
b00000000000000000000000000010000 x
1"9
0";
b00000000000000000000000000010000 "<
b00000000000000000000000000000000 f
b00000000000000000000000000010000 "=
b10010000000000 Q
b0010000001000000 R
b10 J
b000 M
b0010 N
b0010000101000000 R
#55
0!
0".
#60
1!
1".
b0010000101000000 S
b10 =
b0010 ?
b00000 `
b10001 a
b00000000000000000000000000010000 i
b00000000000000000000000000010000 n
b00000000000000000000000000010000 "6
b00000000000000000000000000010000 )
b000100 "S
b00111100000010000000000000000000 '
b00000000000000000000000000010100 h
b00000000000000000000000000010100 m
b0000000000100100 ",
b00000000000000000000000010010000 r
b00000000000000000000000010100000 n
b00110010000100000000000000100100 o
b00001000010000000000000010010000 ")
1V
1W
b10000 ]
b10000 ^
b00000000000000000000000000100100 p
b00000000001001000000000000000000 s
b001100 *
b100100 +
b00000000000000000000000000000000 "3
b00000000000000000000000000000000 q
b00000000000000000000000000000000 "5
b00000000000000000000000000000000 t
b00000000000000000000000000001100 "7
b00000000000000000000000000001100 j
b00000000000000000000000000001000 "I
b00000000000000000000000000001000 k
b00000000000000000000000000100100 "2
b00000000001001000000000000000000 "4
b00000000000000000000000000000000 x
0"9
1";
b00000000000000000000000000000000 "<
b10001 c
b00 [
b00 \
b00000000000000000000000000010100 g
b00000000000000000000000000000000 "=
b10001000000100 Q
b0010000100100000 R
b01 J
b100 M
b0000 N
b0010000000100000 R
#65
0!
0".
#70
1!
1".
b0010000000100000 S
b01 =
b0000 ?
b10000 `
b10000 a
b00000000000000000000000000010100 i
b00000000000000000000000010100100 n
b00000000000000000000000000010100 "6
b10001 d
0V
0W
b00000000000000000000000000010100 )
b000101 "S
b00110001000010000000000000010111 '
b00000000000000000000000000011000 h
b00000000000000000000000000011000 m
b0000000000000000 ",
b00000000000000000000000000000000 r
b00000000000000000000000000010100 n
b00111100000010000000000000000000 o
b00000000001000000000000000000000 ")
b00000 ]
b01000 ^
b00000000000000000000000000000000 p
b00000000000000000000000000000000 s
b001111 *
b000000 +
b00000000000000000000000000100100 "3
b00000000000000000000000000100100 q
b00000000001001000000000000000000 "5
b00000000001001000000000000000000 t
b00000000000000000000000000010000 "7
b00000000000000000000000000010000 j
b00000000000000000000000000001100 "I
b00000000000000000000000000001100 k
b00000000000000000000000000001000 "N
b00000000000000000000000000001000 l
b00000000000000000000000000000000 "2
b00000000000000000000000000000000 "4
b10000 c
b01 [
b01 \
b00000000000000000000000000011000 g
b00000000000000000000000000100100 x
1"9
0";
b00000000000000000000000000100100 "<
b00000000000000000000000000100100 "=
b10010000000000 Q
b0010000001000000 R
b10 J
b000 M
b0010 N
b0010000101000000 R
#75
0!
0".
#80
1!
1".
b0010000101000000 S
b10 =
b0010 ?
b00000 `
b01000 a
b00000000000000000000000000011000 i
b00000000000000000000000000011000 n
b00000000000000000000000000011000 "6
b10000 d
b10001 e
b00000000000000000000000000011000 )
b000110 "S
b00111100000010011111111111111111 '
b00000000000000000000000000011100 h
b00000000000000000000000000011100 m
b0000000000010111 ",
b00000000000000000000000001011100 r
b00000000000000000000000001110100 n
b00110001000010000000000000010111 o
b00000100001000000000000001011100 ")
b01000 ]
b00000000000000000000000000010111 p
b00000000000101110000000000000000 s
b001100 *
b010111 +
b00000000000000000000000000000000 "3
b00000000000000000000000000000000 q
b00000000000000000000000000000000 "5
b00000000000000000000000000000000 t
b00000000000000000000000000010100 "7
b00000000000000000000000000010100 j
b00000000000000000000000000010000 "I
b00000000000000000000000000010000 k
b00000000000000000000000000001100 "N
b00000000000000000000000000001100 l
b00000000000000000000000000010111 "2
b00000000000101110000000000000000 "4
b00000000000000000000000000000000 x
0"9
1";
b00000000000000000000000000000000 "<
b01000 c
b00 [
b00 \
b00000000000000000000000000011100 g
b00000000000000000000000000000000 "=
b10001000000100 Q
b0010000100100000 R
b01 J
b100 M
b0000 N
b0010000000100000 R
#85
0!
0".
